DATA*6200 Assignment 2
…
wildfire_html = read_html('https://www2.gov.bc.ca/gov/content/safety/wildfire-status/about-bcws/wildfire-statistics')

wildfire_html

{html_document}
<html lang="en">
[1] <head>\n<meta http-equiv="Content-Type" content="text/html; charset=UTF-8 ...
[2] <body>\n<div id="__next" data-reactroot="">\n<script src="/env-config.js" ...

wildfire = wildfire_html %>% 
  html_element("table") %>% 
  html_table()
wildfire

# A tibble: 1,108 × 8
    Year `Fire Number` `Fire Centre` Latitude  Longitude  Geographic            
   <int> <chr>         <chr>         <chr>     <chr>      <chr>                 
 1  2017 C50011 (2017) Cariboo       51 56.952 123 08.113 Lee's Corner          
 2  2017 C50043 (2017) Cariboo       51 59.384 123 09.690 3 Km East Anaham Rese…
 3  2017 C10248 (2017) Cariboo       53 10.077 123 02.022 Pantage Lake          
 4  2017 C40329 (2017) Cariboo       51 45.338 121 50.060 6km SE of Place Lake  
 5  2017 C20352 (2017) Cariboo       51 44.568 121 59.996 4 km W of Emerald Lake
 6  2017 C20414 (2017) Cariboo       52 00.900 122 54.032 Raven Lake            
 7  2017 C31005 (2017) Cariboo       52 24.298 121 32.763 SW End of Antoine Lake
 8  2017 C40621 (2017) Cariboo       51 39.247 121 23.922 Gustafsen Road        
 9  2017 C10683 (2017) Cariboo       52 48.617 122 18.217 Green Mountain        
10  2017 C10701 (2017) Cariboo       52 39.916 122 29.296 Fraser River Narcosli…
# ℹ 1,098 more rows
# ℹ 2 more variables: `Discovery Date` <chr>, `Size (ha)` <dbl>
…
wildfire_time

# A tibble: 1,108 × 9
    Year `Fire Number` `Fire Centre` Latitude  Longitude  Geographic            
   <int> <chr>         <chr>         <chr>     <chr>      <chr>                 
 1  2017 C50011 (2017) Cariboo       51 56.952 123 08.113 Lee's Corner          
 2  2017 C50043 (2017) Cariboo       51 59.384 123 09.690 3 Km East Anaham Rese…
 3  2017 C10248 (2017) Cariboo       53 10.077 123 02.022 Pantage Lake          
 4  2017 C40329 (2017) Cariboo       51 45.338 121 50.060 6km SE of Place Lake  
 5  2017 C20352 (2017) Cariboo       51 44.568 121 59.996 4 km W of Emerald Lake
 6  2017 C20414 (2017) Cariboo       52 00.900 122 54.032 Raven Lake            
 7  2017 C31005 (2017) Cariboo       52 24.298 121 32.763 SW End of Antoine Lake
 8  2017 C40621 (2017) Cariboo       51 39.247 121 23.922 Gustafsen Road        
 9  2017 C10683 (2017) Cariboo       52 48.617 122 18.217 Green Mountain        
10  2017 C10701 (2017) Cariboo       52 39.916 122 29.296 Fraser River Narcosli…
# ℹ 1,098 more rows
# ℹ 3 more variables: `Discovery Date` <chr>, `Size (ha)` <dbl>, month <dbl>
…
Apply the function

wildfire_coord = wildfire_time
wildfire_coord$longitude = sapply(wildfire_time$Longitude, convert_longitude)
wildfire_coord$latitude = sapply(wildfire_time$Latitude, convert_latitude)
wildfire_coord

# A tibble: 1,108 × 11
    Year `Fire Number` `Fire Centre` Latitude  Longitude  Geographic            
   <int> <chr>         <chr>         <chr>     <chr>      <chr>                 
 1  2017 C50011 (2017) Cariboo       51 56.952 123 08.113 Lee's Corner          
 2  2017 C50043 (2017) Cariboo       51 59.384 123 09.690 3 Km East Anaham Rese…
 3  2017 C10248 (2017) Cariboo       53 10.077 123 02.022 Pantage Lake          
 4  2017 C40329 (2017) Cariboo       51 45.338 121 50.060 6km SE of Place Lake  
 5  2017 C20352 (2017) Cariboo       51 44.568 121 59.996 4 km W of Emerald Lake
 6  2017 C20414 (2017) Cariboo       52 00.900 122 54.032 Raven Lake            
 7  2017 C31005 (2017) Cariboo       52 24.298 121 32.763 SW End of Antoine Lake
 8  2017 C40621 (2017) Cariboo       51 39.247 121 23.922 Gustafsen Road        
 9  2017 C10683 (2017) Cariboo       52 48.617 122 18.217 Green Mountain        
10  2017 C10701 (2017) Cariboo       52 39.916 122 29.296 Fraser River Narcosli…
# ℹ 1,098 more rows
# ℹ 5 more variables: `Discovery Date` <chr>, `Size (ha)` <dbl>, month <dbl>,
#   longitude <dbl>, latitude <dbl>
…
#How does elevation and temperature correlated with wildfire

wildfire_vect = vect(wildfire_sf)
elevation_value = terra::extract(bc_ele, wildfire_vect)[,2]
wildfire_elevation = wildfire_sf %>% 
  mutate(elevation = elevation_value) 
wildfire_elevation

Simple feature collection with 1108 features and 10 fields
Geometry type: POINT
Dimension:     XY
Bounding box:  xmin: -134.021 ymin: 48.38862 xmax: -114.3025 ymax: 59.98007
Geodetic CRS:  WGS 84
# A tibble: 1,108 × 11
    Year `Fire Number` `Fire Centre` Latitude  Longitude  Geographic            
 * <int> <chr>         <chr>         <chr>     <chr>      <chr>                 
 1  2017 C50011 (2017) Cariboo       51 56.952 123 08.113 Lee's Corner          
 2  2017 C50043 (2017) Cariboo       51 59.384 123 09.690 3 Km East Anaham Rese…
 3  2017 C10248 (2017) Cariboo       53 10.077 123 02.022 Pantage Lake          
 4  2017 C40329 (2017) Cariboo       51 45.338 121 50.060 6km SE of Place Lake  
 5  2017 C20352 (2017) Cariboo       51 44.568 121 59.996 4 km W of Emerald Lake
 6  2017 C20414 (2017) Cariboo       52 00.900 122 54.032 Raven Lake            
 7  2017 C31005 (2017) Cariboo       52 24.298 121 32.763 SW End of Antoine Lake
 8  2017 C40621 (2017) Cariboo       51 39.247 121 23.922 Gustafsen Road        
 9  2017 C10683 (2017) Cariboo       52 48.617 122 18.217 Green Mountain        
10  2017 C10701 (2017) Cariboo       52 39.916 122 29.296 Fraser River Narcosli…
# ℹ 1,098 more rows
# ℹ 5 more variables: `Discovery Date` <chr>, `Size (ha)` <dbl>, month <dbl>,
#   geometry <POINT [°]>, elevation <dbl>
…
wildfire_degree

Simple feature collection with 1108 features and 10 fields
Geometry type: POINT
Dimension:     XY
Bounding box:  xmin: -134.021 ymin: 48.38862 xmax: -114.3025 ymax: 59.98007
Geodetic CRS:  WGS 84
# A tibble: 1,108 × 11
    Year `Fire Number` `Fire Centre` Latitude  Longitude  Geographic            
 * <int> <chr>         <chr>         <chr>     <chr>      <chr>                 
 1  2017 C50011 (2017) Cariboo       51 56.952 123 08.113 Lee's Corner          
 2  2017 C50043 (2017) Cariboo       51 59.384 123 09.690 3 Km East Anaham Rese…
 3  2017 C10248 (2017) Cariboo       53 10.077 123 02.022 Pantage Lake          
 4  2017 C40329 (2017) Cariboo       51 45.338 121 50.060 6km SE of Place Lake  
 5  2017 C20352 (2017) Cariboo       51 44.568 121 59.996 4 km W of Emerald Lake
 6  2017 C20414 (2017) Cariboo       52 00.900 122 54.032 Raven Lake            
 7  2017 C31005 (2017) Cariboo       52 24.298 121 32.763 SW End of Antoine Lake
 8  2017 C40621 (2017) Cariboo       51 39.247 121 23.922 Gustafsen Road        
 9  2017 C10683 (2017) Cariboo       52 48.617 122 18.217 Green Mountain        
10  2017 C10701 (2017) Cariboo       52 39.916 122 29.296 Fraser River Narcosli…
# ℹ 1,098 more rows
# ℹ 5 more variables: `Discovery Date` <chr>, `Size (ha)` <dbl>, month <dbl>,
#   geometry <POINT [°]>, degree <dbl>
…
Check the elevation first

wildfire_2024_month = wildfire_2024 %>% 
  mutate(month = as.numeric(substr(as.character(IGN_DATE),5,6)))

wildfire_2024_month

# A tibble: 1,685 × 25
   FIRE_NO FIRE_YEAR RSPNS_TYPC IGN_DATE FR_T_DTE FIRESTATUS FIRE_CAUSE
   <chr>       <dbl> <chr>         <dbl>    <dbl> <chr>      <chr>     
 1 G70183       2024 Full        2.02e13  2.02e13 Out        Person    
 2 K70416       2024 Full        2.02e13  2.02e13 Out        Person    
 3 G70167       2024 Full        2.02e13  2.02e13 Out        Person    
 4 K40213       2024 Full        2.02e13  2.02e13 Out        Person    
 5 VA0145       2024 Full        2.02e13  2.02e13 Out        Person    
 6 K70783       2024 Full        2.02e13  2.02e13 Out        Person    
 7 V70988       2024 Full        2.02e13  2.02e13 Out        Person    
 8 C10787       2024 Full        2.02e 7  2.02e13 Out        Lightning 
 9 G91053       2024 Full        2.02e13  2.02e13 Out        Lightning 
10 G71689       2024 Monitor     2.02e13  2.02e13 Out        Person    
# ℹ 1,675 more rows
# ℹ 18 more variables: FIRE_CENTR <dbl>, ZONE <dbl>, FIRE_ID <dbl>,
#   FIRE_TYPE <chr>, INCDNT_NM <chr>, GEO_DESC <chr>, LATITUDE <dbl>,
#   LONGITUDE <dbl>, SIZE_HA <dbl>, FIRE_URL <chr>, FR_F_NT_ND <chr>,
#   WS_FR_F_ND <chr>, FCODE <chr>, SHAPE <lgl>, OBJECTID <dbl>,
#   X_COORDINATE <dbl>, Y_COORDINATE <dbl>, month <dbl>

wildfire_2024_sf = st_as_sf(wildfire_2024_month, coords = c('LONGITUDE','LATITUDE'), crs = 4326)
wildfire_2024_sf

Simple feature collection with 1685 features and 23 fields
Geometry type: POINT
Dimension:     XY
Bounding box:  xmin: -133.4124 ymin: 48.4668 xmax: -114.5043 ymax: 59.9461
Geodetic CRS:  WGS 84
# A tibble: 1,685 × 24
   FIRE_NO FIRE_YEAR RSPNS_TYPC IGN_DATE FR_T_DTE FIRESTATUS FIRE_CAUSE
 * <chr>       <dbl> <chr>         <dbl>    <dbl> <chr>      <chr>     
 1 G70183       2024 Full        2.02e13  2.02e13 Out        Person    
 2 K70416       2024 Full        2.02e13  2.02e13 Out        Person    
 3 G70167       2024 Full        2.02e13  2.02e13 Out        Person    
 4 K40213       2024 Full        2.02e13  2.02e13 Out        Person    
 5 VA0145       2024 Full        2.02e13  2.02e13 Out        Person    
 6 K70783       2024 Full        2.02e13  2.02e13 Out        Person    
 7 V70988       2024 Full        2.02e13  2.02e13 Out        Person    
 8 C10787       2024 Full        2.02e 7  2.02e13 Out        Lightning 
 9 G91053       2024 Full        2.02e13  2.02e13 Out        Lightning 
10 G71689       2024 Monitor     2.02e13  2.02e13 Out        Person    
# ℹ 1,675 more rows
# ℹ 17 more variables: FIRE_CENTR <dbl>, ZONE <dbl>, FIRE_ID <dbl>,
#   FIRE_TYPE <chr>, INCDNT_NM <chr>, GEO_DESC <chr>, SIZE_HA <dbl>,
#   FIRE_URL <chr>, FR_F_NT_ND <chr>, WS_FR_F_ND <chr>, FCODE <chr>,
#   SHAPE <lgl>, OBJECTID <dbl>, X_COORDINATE <dbl>, Y_COORDINATE <dbl>,
#   month <dbl>, geometry <POINT [°]>

Now attach the corresponding elevation and temperature data.

wildfire_2024_vect = vect(wildfire_2024_sf)
elevation_value = terra::extract(bc_ele, wildfire_2024_vect)[,2]
wildfire_2024_elevation = wildfire_2024_sf %>% 
  mutate(elevation = elevation_value) 
wildfire_2024_elevation

Simple feature collection with 1685 features and 24 fields
Geometry type: POINT
Dimension:     XY
Bounding box:  xmin: -133.4124 ymin: 48.4668 xmax: -114.5043 ymax: 59.9461
Geodetic CRS:  WGS 84
# A tibble: 1,685 × 25
   FIRE_NO FIRE_YEAR RSPNS_TYPC IGN_DATE FR_T_DTE FIRESTATUS FIRE_CAUSE
 * <chr>       <dbl> <chr>         <dbl>    <dbl> <chr>      <chr>     
 1 G70183       2024 Full        2.02e13  2.02e13 Out        Person    
 2 K70416       2024 Full        2.02e13  2.02e13 Out        Person    
 3 G70167       2024 Full        2.02e13  2.02e13 Out        Person    
 4 K40213       2024 Full        2.02e13  2.02e13 Out        Person    
 5 VA0145       2024 Full        2.02e13  2.02e13 Out        Person    
 6 K70783       2024 Full        2.02e13  2.02e13 Out        Person    
 7 V70988       2024 Full        2.02e13  2.02e13 Out        Person    
 8 C10787       2024 Full        2.02e 7  2.02e13 Out        Lightning 
 9 G91053       2024 Full        2.02e13  2.02e13 Out        Lightning 
10 G71689       2024 Monitor     2.02e13  2.02e13 Out        Person    
# ℹ 1,675 more rows
# ℹ 18 more variables: FIRE_CENTR <dbl>, ZONE <dbl>, FIRE_ID <dbl>,
#   FIRE_TYPE <chr>, INCDNT_NM <chr>, GEO_DESC <chr>, SIZE_HA <dbl>,
#   FIRE_URL <chr>, FR_F_NT_ND <chr>, WS_FR_F_ND <chr>, FCODE <chr>,
#   SHAPE <lgl>, OBJECTID <dbl>, X_COORDINATE <dbl>, Y_COORDINATE <dbl>,
#   month <dbl>, geometry <POINT [°]>, elevation <dbl>
…
wildfire_2024_degree

Simple feature collection with 1685 features and 24 fields
Geometry type: POINT
Dimension:     XY
Bounding box:  xmin: -133.4124 ymin: 48.4668 xmax: -114.5043 ymax: 59.9461
Geodetic CRS:  WGS 84
# A tibble: 1,685 × 25
   FIRE_NO FIRE_YEAR RSPNS_TYPC IGN_DATE FR_T_DTE FIRESTATUS FIRE_CAUSE
 * <chr>       <dbl> <chr>         <dbl>    <dbl> <chr>      <chr>     
 1 G70183       2024 Full        2.02e13  2.02e13 Out        Person    
 2 K70416       2024 Full        2.02e13  2.02e13 Out        Person    
 3 G70167       2024 Full        2.02e13  2.02e13 Out        Person    
 4 K40213       2024 Full        2.02e13  2.02e13 Out        Person    
 5 VA0145       2024 Full        2.02e13  2.02e13 Out        Person    
 6 K70783       2024 Full        2.02e13  2.02e13 Out        Person    
 7 V70988       2024 Full        2.02e13  2.02e13 Out        Person    
 8 C10787       2024 Full        2.02e 7  2.02e13 Out        Lightning 
 9 G91053       2024 Full        2.02e13  2.02e13 Out        Lightning 
10 G71689       2024 Monitor     2.02e13  2.02e13 Out        Person    
# ℹ 1,675 more rows
# ℹ 18 more variables: FIRE_CENTR <dbl>, ZONE <dbl>, FIRE_ID <dbl>,
#   FIRE_TYPE <chr>, INCDNT_NM <chr>, GEO_DESC <chr>, SIZE_HA <dbl>,
#   FIRE_URL <chr>, FR_F_NT_ND <chr>, WS_FR_F_ND <chr>, FCODE <chr>,
#   SHAPE <lgl>, OBJECTID <dbl>, X_COORDINATE <dbl>, Y_COORDINATE <dbl>,
#   month <dbl>, geometry <POINT [°]>, degree <dbl>
…
